{
  "version": "v4",
  "repo": "borisyankov/DefinitelyTyped",
  "ref": "master",
  "path": "typings",
  "bundle": "typings/tsd.d.ts",
  "installed": {
    "angularjs/angular.d.ts": {
      "commit": "7d298be1db15bbd1e17638b9c37423efc38fa602"
    },
    "angular-ui/angular-ui-router.d.ts": {
      "commit": "7d298be1db15bbd1e17638b9c37423efc38fa602"
    },
    "jquery/jquery.d.ts": {
      "commit": "0acdbea7fda268fafae18a061070c7544b0596b9"
    },
    "requirejs/require.d.ts": {
      "commit": "2272849a06f2b68205611665e6b86ffec58c1e10"
    },
    "angular-material/angular-material.d.ts": {
      "commit": "7c05f43b86a2b5fb30cd1f67cab942f25294205b"
    },
    "oclazyload/oclazyload.d.ts": {
      "commit": "7c05f43b86a2b5fb30cd1f67cab942f25294205b"
    }
  }
}
